{"failedCount":0,"prefixedPath":"src\/test\/java\/users\/gets\/user-get.feature","packageQualifiedName":"src.test.java.users.gets.user-get","loopIndex":-1,"relativePath":"src\/test\/java\/users\/gets\/user-get.feature","scenarioResults":[{"sectionIndex":0,"stepResults":[{"result":{"nanos":51287200,"millis":51.2872,"status":"passed"},"step":{"line":4,"prefix":"Given","index":0,"text":"url \"https:\/\/reqres.in\/\"+\"api\/users\"+\"2\""}},{"result":{"nanos":1383205000,"millis":1383.205,"status":"passed"},"step":{"line":5,"prefix":"When","index":1,"text":"method get"},"stepLog":"16:13:38.022 request:\n1 > GET https:\/\/reqres.in\/api\/users2\n1 > Host: reqres.in\n1 > Connection: Keep-Alive\n1 > User-Agent: Apache-HttpClient\/4.5.13 (Java\/1.8.0_131)\n1 > Accept-Encoding: gzip,deflate\n\n\n16:13:38.758 response time in milliseconds: 736\n1 < 200\n1 < Date: Tue, 20 Dec 2022 21:13:39 GMT\n1 < Content-Type: application\/json; charset=utf-8\n1 < Transfer-Encoding: chunked\n1 < Connection: keep-alive\n1 < X-Powered-By: Express\n1 < Access-Control-Allow-Origin: *\n1 < Etag: W\/\"2c1-N6Rqerxquq2kgQhL51EiSg4x0R8\"\n1 < Via: 1.1 vegur\n1 < Cache-Control: max-age=14400\n1 < CF-Cache-Status: MISS\n1 < Report-To: {\"endpoints\":[{\"url\":\"https:\\\/\\\/a.nel.cloudflare.com\\\/report\\\/v3?s=Fz5FzJZ2L6ChoAgdU3dAhAAtUc9%2Ft5FtrZ%2Fs2gN5NRn7fieQydzdyEvWyxK%2B6w1dJ8Zr%2Br0AfNQqvdhSh1QCUZyy%2F9RLOjv6nccP%2F2KWyi9wgwP%2BHbis3J7POQ%3D%3D\"}],\"group\":\"cf-nel\",\"max_age\":604800}\n1 < NEL: {\"success_fraction\":0,\"report_to\":\"cf-nel\",\"max_age\":604800}\n1 < Vary: Accept-Encoding\n1 < Server: cloudflare\n1 < CF-RAY: 77cb6216dbb39ae3-MIA\n{\"page\":1,\"per_page\":6,\"total\":12,\"total_pages\":2,\"data\":[{\"id\":1,\"name\":\"cerulean\",\"year\":2000,\"color\":\"#98B2D1\",\"pantone_value\":\"15-4020\"},{\"id\":2,\"name\":\"fuchsia rose\",\"year\":2001,\"color\":\"#C74375\",\"pantone_value\":\"17-2031\"},{\"id\":3,\"name\":\"true red\",\"year\":2002,\"color\":\"#BF1932\",\"pantone_value\":\"19-1664\"},{\"id\":4,\"name\":\"aqua sky\",\"year\":2003,\"color\":\"#7BC4C4\",\"pantone_value\":\"14-4811\"},{\"id\":5,\"name\":\"tigerlily\",\"year\":2004,\"color\":\"#E2583E\",\"pantone_value\":\"17-1456\"},{\"id\":6,\"name\":\"blue turquoise\",\"year\":2005,\"color\":\"#53B0AE\",\"pantone_value\":\"15-5217\"}],\"support\":{\"url\":\"https:\/\/reqres.in\/#support-heading\",\"text\":\"To keep ReqRes free, contributions towards server costs are appreciated!\"}}\n\n"},{"result":{"nanos":11100,"millis":0.0111,"status":"passed"},"step":{"line":6,"prefix":"Then","index":2,"text":"status 200"}}],"executorName":"main","line":3,"name":"Get user","description":"","durationMillis":1434.5033,"startTime":1671570817332,"failed":false,"refId":"[1:3]","endTime":1671570818783,"exampleIndex":-1}],"callDepth":0,"name":"Get user on regres","description":"","resultDate":"2022-12-20 04:13:38 PM","durationMillis":1434.5033,"passedCount":1}